{
    "accountType": "[name='accountType']",
    "emailField": "#email",
    "name": "#name",
    "sendInvite": "#submit-login",
    "invitedUserList": ".listItemTextEmail span",
    "okInviteBtn": ".submitConfirmAction button",
    "closeButton": ".crossButton",
    "SuccessMessage": ".submitConfirmContent .para",
    "addMechanicsConfirmButton": ".AddMechanicsConfirmButton",
    "addMechanicsConfirmText": ".AddMechanicsConfirmText .para",
    "setupAccountBtn": ".submitConfirmButton",
    "phoneField": "[name='phone']",
    "passwordField": "#standard-adornment-password",
    "confirmPasswordField": "#standard-adornment-confirmPassword",
    "passwordError": "span.MuiListItemText-primary",
    "createAccountbtn": "#submit-setupaccount",
    "okBtn": ".submitConfirmButton"
}