{
    "toastMessage": ".submitConfirmContent .para",
    "validationError": "p.Mui-error",
    "phoneValidationError": ".phoneRequire",
    "navNewActivityBtn": ".NewEntryBtn.navbarBtn",
    "navYourWorkflowBtn": ".WorkflowBtn.navbarBtn",
    "navOptions": "[role='menuitem']",
    "dropdownOptions": "[role='option']",
    "submitButton": "#submit-login",
    "dropdownOptionButtons": "[role='button']",
    "dialogBtns": "[role='dialog'] button",
    "emailField": "#email",
    "name": "#name",
    "errorUnderLine": ".MuiInput-underline.Mui-error",
    "pageHeading": ".GarrageInfo h4",
    "submitConfirmText": ".SubmitConfirmText p",
    "customerToastMessage": ".SubmitConfirmText p.para"
}