{
    "searchCustomer": "#key",
    "addCustomerBtn": ".addCustomer",
    "footerBtns": "div.MuiGrid-root button",
    "searchByDropdown": ".MuiPaper-elevation1 div.MuiSelect-selectMenu",
    "inspectionTitle": "#title",
    "inspectionTypeBtns": ".gridLeft button",
    "inspectionTypeError": "div.Top > div > p",
    "generalInspectionTabBtns": "[role='tablist'] button",

    "customerData": ".CustomerSearch ul > div:nth-child(1)", 
    "vehicleData": "div.MuiCardContent-root",
    
    "selectedcustomerData": "div.MuiCardContent-root",
    "selectedvehicleData": "div.MuiCardContent-root",

    "conditionRadio": "[name='radio']",
    "badCondition": "[value='bad']",
    "GoodCondition": "[value='good']",
    "ModerateCondition": "[value='moderate']",
    "dialogBtns": "[role='dialog'] button",
    "radioGroup": "[role='radiogroup']",
    "partName": "tbody tr td",
    "partNotes": "[name='notes']",
    "partImageHolder": "[accept='image/*']",
    "diagnosticCode": "#diagnosticCode",
    "fuelGauge": ".OTIcon .fuel__guage link",
    "fuelGaugeImageHolder": "#AddImage",
    "odoMeter": "#odometer",
    "odoMeterImageHolder": "#AddImageOdo",
    "extrasWithVehicle": "#extrasWithVehicle",
    "previewField": ".nameValue p.name",
    "previewFieldValue": "p.value",    
    "previewConditionName": ".topAccordion .Name",
    "previewConditionValue": ".topAccordion .Value", 

    "previewPartsConditionName": "#panel2a-content .names",   
    "previewPartsConditionCloseBtn": "#panel1a-content button",   
    "previewPartsConditionPartImage": "#panel1a-content .right div", 

    "previewBadConditionPartsName": "#panel2a-content .names",   
    "previewBadConditionCloseBtn": "#panel1a-content button",   
    "previewBadConditionPartImage": "#panel1a-content .right div",   
    "previewModerateConditionPartsName": "#panel1a-content .names",   
    "previewModerateConditionCloseBtn": "#panel2a-content button",   
    "previewModerateConditionPartImage": "#panel2a-content .right div",   

    "previewFuelGauge": ".AfterAccordion .fuel__guage link",
    "previewDiagnoseData": ".AfterAccordion .names",
    "previewSignature": ".signature img",
    "generateBtns": ".generate__btns button",
    "signatureCanvas": ".submitConfirmInspectionContent canvas",
    "dropdownOptionButtons": ".MuiListItem-button[role='button']",
    "dropdownVehicleButtons": "span",
    "authorizeBtn": ".sign__auth__btn",
    "successTitle": "#swal2-title",
    "okBtn": "button.CustomizeSwalConfirmButton"

}